v 20130925 2
L 7200 5600 7200 4500 15 5 0 0 -1 -1
L 7200 4500 9200 4500 15 5 0 0 -1 -1
L 9200 4500 9200 5600 15 5 0 0 -1 -1
L 9200 5600 7200 5600 15 5 0 0 -1 -1
P 6900 5400 7200 5400 15 0 0
{
T 7050 5415 15 7 1 1 0 3 1
pinnumber=1
T 7215 5400 15 5 1 1 0 1 1
pinlabel=*1A
T 7050 5415 15 7 0 1 0 3 1
pinseq=1
T 7050 5415 15 7 0 1 0 3 1
pintype=in
}
P 6900 5300 7200 5300 15 0 0
{
T 7050 5315 15 7 1 1 0 3 1
pinnumber=2
T 7215 5300 15 5 1 1 0 1 1
pinlabel=1B
T 7050 5315 15 7 0 1 0 3 1
pinseq=2
T 7050 5315 15 7 0 1 0 3 1
pintype=in
}
P 6900 5200 7200 5200 15 0 0
{
T 7050 5215 15 7 1 1 0 3 1
pinnumber=3
T 7215 5200 15 5 1 1 0 1 1
pinlabel=*1R
T 7050 5215 15 7 0 1 0 3 1
pinseq=3
T 7050 5215 15 7 0 1 0 3 1
pintype=in
}
P 6900 5100 7200 5100 15 0 0
{
T 7050 5115 15 7 1 1 0 3 1
pinnumber=4
T 7215 5100 15 5 1 1 0 1 1
pinlabel=*1Q
T 7050 5115 15 7 0 1 0 3 1
pinseq=4
T 7050 5115 15 7 0 1 0 3 1
pintype=out
}
P 6900 5000 7200 5000 15 0 0
{
T 7050 5015 15 7 1 1 0 3 1
pinnumber=5
T 7215 5000 15 5 1 1 0 1 1
pinlabel=2Q
T 7050 5015 15 7 0 1 0 3 1
pinseq=5
T 7050 5015 15 7 0 1 0 3 1
pintype=out
}
P 6900 4900 7200 4900 15 0 0
{
T 7050 4915 15 7 1 1 0 3 1
pinnumber=6
T 7215 4900 15 5 1 1 0 1 1
pinlabel=2CX
T 7050 4915 15 7 0 1 0 3 1
pinseq=6
T 7050 4915 15 7 0 1 0 3 1
pintype=pas
}
P 6900 4800 7200 4800 15 0 0
{
T 7050 4815 15 7 1 1 0 3 1
pinnumber=7
T 7215 4800 15 5 1 1 0 1 1
pinlabel=2RXCX
T 7050 4815 15 7 0 1 0 3 1
pinseq=7
T 7050 4815 15 7 0 1 0 3 1
pintype=pas
}
P 6900 4700 7200 4700 15 0 0
{
T 7050 4715 15 7 1 1 0 3 1
pinnumber=8
T 7215 4700 15 5 1 1 0 1 1
pinlabel=GND
T 7050 4715 15 7 0 1 0 3 1
pinseq=8
T 7050 4715 15 7 0 1 0 3 1
pintype=pwr
}
P 9500 4700 9200 4700 15 0 0
{
T 9350 4715 15 7 1 1 0 3 1
pinnumber=9
T 9185 4700 15 5 1 1 0 7 1
pinlabel=*2A
T 9350 4715 15 7 0 1 0 3 1
pinseq=9
T 9350 4715 15 7 0 1 0 3 1
pintype=in
}
P 9500 4800 9200 4800 15 0 0
{
T 9350 4815 15 7 1 1 0 3 1
pinnumber=10
T 9185 4800 15 5 1 1 0 7 1
pinlabel=2B
T 9350 4815 15 7 0 1 0 3 1
pinseq=10
T 9350 4815 15 7 0 1 0 3 1
pintype=in
}
P 9500 4900 9200 4900 15 0 0
{
T 9350 4915 15 7 1 1 0 3 1
pinnumber=11
T 9185 4900 15 5 1 1 0 7 1
pinlabel=*2R
T 9350 4915 15 7 0 1 0 3 1
pinseq=11
T 9350 4915 15 7 0 1 0 3 1
pintype=in
}
P 9500 5000 9200 5000 15 0 0
{
T 9350 5015 15 7 1 1 0 3 1
pinnumber=12
T 9185 5000 15 5 1 1 0 7 1
pinlabel=*2Q
T 9350 5015 15 7 0 1 0 3 1
pinseq=12
T 9350 5015 15 7 0 1 0 3 1
pintype=out
}
P 9500 5100 9200 5100 15 0 0
{
T 9350 5115 15 7 1 1 0 3 1
pinnumber=13
T 9185 5100 15 5 1 1 0 7 1
pinlabel=1Q
T 9350 5115 15 7 0 1 0 3 1
pinseq=13
T 9350 5115 15 7 0 1 0 3 1
pintype=out
}
P 9500 5200 9200 5200 15 0 0
{
T 9350 5215 15 7 1 1 0 3 1
pinnumber=14
T 9185 5200 15 5 1 1 0 7 1
pinlabel=1CX
T 9350 5215 15 7 0 1 0 3 1
pinseq=14
T 9350 5215 15 7 0 1 0 3 1
pintype=pas
}
P 9500 5300 9200 5300 15 0 0
{
T 9350 5315 15 7 1 1 0 3 1
pinnumber=15
T 9185 5300 15 5 1 1 0 7 1
pinlabel=1RXCX
T 9350 5315 15 7 0 1 0 3 1
pinseq=15
T 9350 5315 15 7 0 1 0 3 1
pintype=pas
}
P 9500 5400 9200 5400 15 0 0
{
T 9350 5415 15 7 1 1 0 3 1
pinnumber=16
T 9185 5400 15 5 1 1 0 7 1
pinlabel=VCC
T 9350 5415 15 7 0 1 0 3 1
pinseq=16
T 9350 5415 15 7 0 1 0 3 1
pintype=pwr
}
T 2800 2770 3 7 0 0 0 0 1
numslots=0
T 2800 220 3 7 0 0 0 0 1
RefDes=RefDes
T 2800 330 3 7 0 0 0 0 1
Type=Type
T 2800 440 3 7 0 0 0 0 1
Value=Value
T 2800 550 3 7 0 0 0 0 1
footprint=NS16
T 2800 660 3 7 0 0 0 0 1
alt-footprint=NS16-M
T 2800 770 3 7 0 0 0 0 1
alt-footprint=NS16-L
T 2800 880 3 7 0 0 0 0 1
refdes=U?
T 2800 990 3 7 0 0 0 0 1
Manufacturer=Texas Instruments
T 2800 1100 3 7 0 0 0 0 1
Datasheet URL=http://www.ti.com/lit/gpn/CD74HC123
T 2800 1210 3 7 0 0 0 0 1
INDUSTRY_STD_PKG_TYPE=SO
T 2800 1320 3 7 0 0 0 0 1
FAMILY_NAME=MONOSTABLE MULTIVIBRATOR
T 2800 1430 3 7 0 0 0 0 1
PIN_COUNT=16
T 2800 1540 3 7 0 0 0 0 1
PACKAGE_DESIGNATOR=NS
T 2800 1650 3 7 0 0 0 0 1
DESCRIPTION=High Speed CMOS Logic Dual Retriggerable Monostable Multivibrators with Reset
T 2800 1760 3 7 0 0 0 0 1
GENERIC_PART_NUMBER=CD74HC123
C 11800 4750 1 90 0 capacitor-1.sym
{
T 11100 4950 5 10 0 0 90 0 1
device=CAPACITOR
T 11300 4950 5 10 1 1 90 0 1
refdes=1 uF
T 10900 4950 5 10 0 0 90 0 1
symversion=0.1
}
C 6500 2700 1 0 0 ground.sym
C 11900 3950 1 0 0 ground.sym
N 12100 4200 12100 4250 4
C 3600 4800 1 0 0 BNC-1.sym
{
T 3950 5450 5 10 0 0 0 0 1
device=BNC
T 3600 5600 5 10 1 1 0 0 1
refdes=Input
}
N 4100 5300 6900 5300 4
C 15900 4600 1 0 1 BNC-1.sym
{
T 15550 5250 5 10 0 0 0 6 1
device=BNC
T 15900 5200 5 10 1 1 0 6 1
refdes=Output
}
N 9500 5100 15400 5100 4
N 9500 5400 9500 6200 4
N 9500 6200 10100 6200 4
N 11900 6200 12100 6200 4
N 12100 5400 12100 6600 4
N 9500 5200 9900 5200 4
N 9900 4750 9900 5200 4
C 10600 5500 1 0 0 resistor-1.sym
{
T 10900 5900 5 10 0 0 0 0 1
device=RESISTOR
T 10800 5800 5 10 1 1 0 0 1
refdes=10 kohm
}
N 5400 3700 9800 3700 4
N 9800 3700 9800 4800 4
N 9800 4800 9500 4800 4
C 9600 5500 1 0 0 resistor-variable-1.sym
{
T 10400 6400 5 10 0 0 0 0 1
device=VARIABLE_RESISTOR
T 9800 5800 5 10 1 1 0 0 1
refdes=150 kohm
}
N 10500 5600 10600 5600 4
N 11500 5600 11600 5600 4
N 11600 5600 11600 5650 4
N 9500 5300 9600 5300 4
N 9600 5300 9600 5600 4
N 6400 4900 6900 4900 4
C 5500 4500 1 0 0 resistor-1.sym
{
T 5800 4900 5 10 0 0 0 0 1
device=RESISTOR
T 5600 4700 5 10 1 1 0 0 1
refdes=10 kohm
}
C 5700 5450 1 90 0 capacitor-1.sym
{
T 5000 5650 5 10 0 0 90 0 1
device=CAPACITOR
T 5200 5650 5 10 1 1 90 0 1
refdes=10 uF
T 4800 5650 5 10 0 0 90 0 1
symversion=0.1
}
N 5500 6350 6400 6350 4
N 6400 4900 6400 6350 4
N 5500 5450 5500 4600 4
N 6900 5400 6700 5400 4
N 6700 5400 6700 3000 4
N 12100 6600 6800 6600 4
N 6800 6600 6800 5200 4
N 6800 5200 6900 5200 4
N 9700 6600 9700 4900 4
N 9700 4900 9500 4900 4
N 9500 3200 9500 4700 4
N 4800 3200 6700 3200 4
N 6900 4700 6700 4700 4
N 11600 4750 9900 4750 4
N 5400 5300 5400 3700 4
C 3500 4500 1 0 0 ground.sym
C 15600 4300 1 0 0 ground.sym
T 4600 7500 9 10 1 0 0 0 5
Pulse stretcher
Each output delivers a positive trigger with a pulse width (PW) calculated as PW = 0.45*R*C
1Q PW ranges between 4.5 ms and 49.5 ms
2Q has a fix PW of 45 ms to flash when trigger is detected
The minimum pulse width of the input (positive trigger) is around 20 ns
N 9500 3200 6700 3200 4
N 6900 4800 6400 4800 4
N 6400 4800 6400 4600 4
T 7600 4600 9 10 1 0 0 0 1
CD74HC123EE4
C 11000 6100 1 0 0 resistor-1.sym
{
T 11300 6500 5 10 0 0 0 0 1
device=RESISTOR
T 11200 6400 5 10 1 1 0 0 1
refdes=150 ohm
}
C 11000 6000 1 0 1 led-1.sym
{
T 10200 6600 5 10 0 0 0 6 1
device=LED
T 11000 6700 5 10 1 1 0 6 1
refdes=VCC LED
T 10200 6800 5 10 0 0 0 6 1
symversion=0.1
}
C 4900 4100 1 90 0 resistor-1.sym
{
T 4500 4400 5 10 0 0 90 0 1
device=RESISTOR
T 4600 4300 5 10 1 1 90 0 1
refdes=150 ohm
}
C 5000 4100 1 90 1 led-1.sym
{
T 4400 3300 5 10 0 0 90 6 1
device=LED
T 4300 4100 5 10 1 1 90 6 1
refdes=VCC LED
T 4200 3300 5 10 0 0 90 6 1
symversion=0.1
}
P 12100 5400 12400 5400 1 0 0
{
T 12300 5350 5 8 0 1 0 8 1
pinseq=1
T 12450 5400 5 8 0 1 0 2 1
pintype=pwr
T 12300 5450 5 8 1 1 0 6 1
pinnumber=1
T 12450 5400 9 8 1 1 0 0 1
pinlabel=VCC
}
P 12100 5000 12400 5000 1 0 0
{
T 12300 4950 5 8 0 1 0 8 1
pinseq=2
T 12450 5000 5 8 0 1 0 2 1
pintype=io
T 12300 5050 5 8 1 1 0 6 1
pinnumber=2
T 12450 5000 9 8 1 1 0 0 1
pinlabel=D-
}
P 12100 4600 12400 4600 1 0 0
{
T 12300 4550 5 8 0 1 0 8 1
pinseq=3
T 12450 4600 5 8 0 1 0 2 1
pintype=io
T 12300 4650 5 8 1 1 0 6 1
pinnumber=3
T 12450 4600 9 8 1 1 0 0 1
pinlabel=D+
}
P 12100 4200 12400 4200 1 0 0
{
T 12300 4150 5 8 0 1 0 8 1
pinseq=4
T 12450 4200 5 8 0 1 0 2 1
pintype=pwr
T 12300 4250 5 8 1 1 0 6 1
pinnumber=4
T 12450 4200 9 8 1 1 0 0 1
pinlabel=GND
}
B 12400 3800 1200 2000 3 0 0 0 -1 -1 0 -1 -1 -1 -1 -1
T 15600 5900 8 10 1 1 0 6 1
refdes=TYPE B (provides 5V and ground)
T 12400 5900 9 10 1 0 0 0 1
USB
N 4800 5000 6900 5000 4
G 12400 6834 2000 2666 0 0 0
/home/jundurraga/Dropbox/Documents/electronic/pulse-stretcher/Pulse_stretcher.jpeg
